{
    "KPlugin": {
        "Authors": [
            {
                "Email": "jowenn@kde.org",
                "Name": "Joseph Wenninger",
                "Name[ar]": "Joseph Wenninger",
                "Name[az]": "Joseph Wenninger",
                "Name[bg]": "Joseph Wenninger",
                "Name[ca@valencia]": "Joseph Wenninger",
                "Name[ca]": "Joseph Wenninger",
                "Name[cs]": "Joseph Wenninger",
                "Name[de]": "Joseph Wenninger",
                "Name[en_GB]": "Joseph Wenninger",
                "Name[es]": "Joseph Wenninger",
                "Name[eu]": "Joseph Wenninger",
                "Name[fi]": "Joseph Wenninger",
                "Name[fr]": "Joseph Wenninger",
                "Name[ia]": "Joseph Wenninger",
                "Name[id]": "Joseph Wenninger",
                "Name[is]": "Joseph Wenninger",
                "Name[it]": "Joseph Wenninger",
                "Name[ja]": "Joseph Wenninger",
                "Name[ka]": "Joseph Wenninger",
                "Name[ko]": "Joseph Wenninger",
                "Name[lt]": "Joseph Wenninger",
                "Name[nl]": "Joseph Wenninger",
                "Name[nn]": "Joseph Wenninger",
                "Name[pl]": "Joseph Wenninger",
                "Name[pt]": "Joseph Wenninger",
                "Name[pt_BR]": "Joseph Wenninger",
                "Name[ro]": "Joseph Wenninger",
                "Name[ru]": "Joseph Wenninger",
                "Name[sk]": "Joseph Wenninger",
                "Name[sl]": "Joseph Wenninger",
                "Name[sv]": "Joseph Wenninger",
                "Name[tr]": "Joseph Wenninger",
                "Name[uk]": "Joseph Wenninger",
                "Name[vi]": "Joseph Wenninger",
                "Name[x-test]": "xxJoseph Wenningerxx",
                "Name[zh_CN]": "Joseph Wenninger",
                "Name[zh_TW]": "Joseph Wenninger"
            }
        ],
        "Category": "Utilities",
        "Description": "Kate Session Launcher",
        "Description[ar]": "مُطلق جلسات كيت",
        "Description[az]": "Kate sesiay başladıcı",
        "Description[bg]": "Зареждане на сесии на Kate",
        "Description[ca@valencia]": "Iniciador de la sessió de Kate",
        "Description[ca]": "Llançador de la sessió del Kate",
        "Description[cs]": "Spouštěč sezení Kate",
        "Description[de]": "Kate-Sitzung starten",
        "Description[en_GB]": "Kate Session Launcher",
        "Description[es]": "Lanzador de sesiones de Kate",
        "Description[eu]": "Kate-saioaren abiarazlea",
        "Description[fi]": "Kate-istuntokäynnistin",
        "Description[fr]": "Lanceur de sessions de Kate",
        "Description[ia]": "Lanceator de session de Kate",
        "Description[id]": "Peluncur Sesi Kate",
        "Description[is]": "Ræsir fyrir Kate-setu",
        "Description[it]": "Avviatore delle sessioni di Kate",
        "Description[ja]": "Kate セッションランチャー",
        "Description[ka]": "Kate -ის სესიის გამშვები",
        "Description[ko]": "Kate 세션 실행기",
        "Description[lt]": "Kate seansų paleidyklė",
        "Description[nl]": "Starter van Kate-sessie",
        "Description[nn]": "Start Kate-økter",
        "Description[pl]": "Uruchamiacz sesji Kate",
        "Description[pt]": "Lançamento de Sessões do Kate",
        "Description[pt_BR]": "Lançamento de sessões do Kate",
        "Description[ro]": "Lansator de sesiuni Kate",
        "Description[ru]": "Программа запуска сеанса Kate",
        "Description[sk]": "Spúšťač Kate sedenia",
        "Description[sl]": "Zaganjalnik sej Kate",
        "Description[sv]": "Kate sessionsstart",
        "Description[tr]": "Kate Oturum Başlatıcı",
        "Description[uk]": "Засіб запуску сеансів Kate",
        "Description[vi]": "Trình khởi chạy phiên Kate",
        "Description[x-test]": "xxKate Session Launcherxx",
        "Description[zh_CN]": "Kate 会话启动器",
        "Description[zh_TW]": "Kate 工作階段啟動器",
        "Icon": "kate",
        "Id": "org.kde.plasma.addons.katesessions",
        "License": "GPL-2.0+",
        "Name": "Kate Sessions",
        "Name[ar]": "جلسات كيت",
        "Name[az]": "Kate sessiyaları",
        "Name[bg]": "Сесии на Kate",
        "Name[ca@valencia]": "Sessions de Kate",
        "Name[ca]": "Sessions del Kate",
        "Name[cs]": "Sezení Kate",
        "Name[de]": "Kate-Sitzungen",
        "Name[en_GB]": "Kate Sessions",
        "Name[es]": "Sesiones de Kate",
        "Name[eu]": "Kate saioak",
        "Name[fi]": "Kate-istunnot",
        "Name[fr]": "Sessions de Kate",
        "Name[ia]": "Sessiones de Kate",
        "Name[id]": "Sesi Kate",
        "Name[is]": "Kate setur",
        "Name[it]": "Sessioni di Kate",
        "Name[ja]": "Kate セッション",
        "Name[ka]": "Kate-ის სესიები",
        "Name[ko]": "Kate 세션",
        "Name[lt]": "Kate seansai",
        "Name[nl]": "Kate-sessies",
        "Name[nn]": "Kate-øktveljar",
        "Name[pl]": "Sesje Kate",
        "Name[pt]": "Sessões do Kate",
        "Name[pt_BR]": "Sessões do Kate",
        "Name[ro]": "Sesiuni Kate",
        "Name[ru]": "Kate: сеансы",
        "Name[sk]": "Sedenia Kate",
        "Name[sl]": "Seje Kate",
        "Name[sv]": "Kate-sessioner",
        "Name[tr]": "Kate Oturumları",
        "Name[uk]": "Сеанси Kate",
        "Name[vi]": "Các phiên Kate",
        "Name[x-test]": "xxKate Sessionsxx",
        "Name[zh_CN]": "Kate 会话",
        "Name[zh_TW]": "Kate 工作階段",
        "ServiceTypes": [
            "Plasma/Applet"
        ],
        "Version": "1.0"
    },
    "X-Plasma-API": "declarativeappletscript",
    "X-Plasma-NotificationArea": "true"
}
