{
    "KPlugin": {
        "Authors": [
            {
                "Email": "vlad.zahorodnii@kde.org",
                "Name": "Vlad Zahorodnii",
                "Name[ar]": "Vlad Zahorodnii",
                "Name[az]": "Vlad Zahorodnii",
                "Name[bg]": "Vlad Zahorodnii",
                "Name[ca@valencia]": "Vlad Zahorodnii",
                "Name[ca]": "Vlad Zahorodnii",
                "Name[cs]": "Vlad Zahorodnii",
                "Name[de]": "Vlad Zahorodnii",
                "Name[en_GB]": "Vlad Zahorodnii",
                "Name[es]": "Vlad Zahorodnii",
                "Name[eu]": "Vlad Zahorodnii",
                "Name[fi]": "Vlad Zahorodnii",
                "Name[fr]": "Vlad Zahorodnii",
                "Name[ia]": "Vlad Zahorodnii",
                "Name[id]": "Vlad Zahorodnii",
                "Name[is]": "Vlad Zahorodnii",
                "Name[it]": "Vlad Zahorodnii",
                "Name[ja]": "Vlad Zahorodnii",
                "Name[ka]": "Vlad Zahorodnii",
                "Name[ko]": "Vlad Zahorodnii",
                "Name[lt]": "Vlad Zahorodnii",
                "Name[nl]": "Vlad Zahorodnii",
                "Name[nn]": "Vlad Zahorodnii",
                "Name[pl]": "Vlad Zahorodnii",
                "Name[pt]": "Vlad Zahorodnii",
                "Name[pt_BR]": "Vlad Zahorodnii",
                "Name[ro]": "Vlad Zahorodnii",
                "Name[ru]": "Влад Загородний",
                "Name[sk]": "Vlad Zahorodnii",
                "Name[sl]": "Vlad Zahorodnii",
                "Name[sv]": "Vlad Zahorodnii",
                "Name[tr]": "Vlad Zahorodnii",
                "Name[uk]": "Влад Загородній",
                "Name[vi]": "Vlad Zahorodnii",
                "Name[x-test]": "xxVlad Zahorodniixx",
                "Name[zh_CN]": "Vlad Zahorodnii",
                "Name[zh_TW]": "Vlad Zahorodnii"
            }
        ],
        "Category": "Graphics",
        "Description": "Plasmoid for controlling Night Color",
        "Description[ar]": "بلازمويد للتحكم باللون الليلي",
        "Description[az]": "Gecə rəng sxemini idarə etmək üçün plasmoid",
        "Description[bg]": "Уиджет за контрол на Вечерни цветове",
        "Description[ca@valencia]": "Plasmoide per a controlar el Color de nit",
        "Description[ca]": "Plasmoide per a controlar el Color de nit",
        "Description[cs]": "Plasmoid pro ovládání noční barvy",
        "Description[de]": "Miniprogramm zur Steuerung der Nachtfarbe",
        "Description[en_GB]": "Plasmoid for controlling Night Colour",
        "Description[es]": "Plasmoide para controlar el color nocturno",
        "Description[eu]": "Gaueko kolorea kontrolatzeko plasmoidea",
        "Description[fi]": "Sovelma yövärin hallintaan",
        "Description[fr]": "Composant graphique pour la gestion de la couleur de nuit",
        "Description[ia]": "Plasmoid per controlar Color de Nocte",
        "Description[id]": "Plasmoid untuk mengendalikan Warna Malam",
        "Description[is]": "Plasmíð til að stýra næturlitum",
        "Description[it]": "Plasmoide per il controllo del colore notturno",
        "Description[ja]": "Night Color をコントロールする Plasmoid です",
        "Description[ka]": "ღამის ფერების სამართავი პლაზმოიდი",
        "Description[ko]": "야간 색상을 제어하는 Plasmoid",
        "Description[lt]": "Plasma įskiepis, skirtas valdyti naktinę spalvą",
        "Description[nl]": "Plasmoid voor besturing van nachtkleur",
        "Description[nn]": "Skjermelement for styring av kveldsfargar",
        "Description[pl]": "Plasmoid do przełączania barw nocnych",
        "Description[pt]": "Plasmóide para controlar a Cor Nocturna",
        "Description[pt_BR]": "Plasmoide para controlar a cor noturna",
        "Description[ro]": "Plasmoid pentru controlul culorii nocturne",
        "Description[ru]": "Виджет для управления ночной цветовой схемой",
        "Description[sk]": "Plasmoid na ovládanie nočnej farby",
        "Description[sl]": "Plasmoid za nadzor nočne barve",
        "Description[sv]": "Plasmoid för att kontrollera nattfärg",
        "Description[tr]": "Gece Rengini denetlemek için Plasmoid",
        "Description[uk]": "Плазмоїд для керування нічними кольорами",
        "Description[vi]": "Plasmoid để điều khiển \"Màu buổi tối\"",
        "Description[x-test]": "xxPlasmoid for controlling Night Colorxx",
        "Description[zh_CN]": "用于控制夜间颜色的 Plasma 小程序",
        "Description[zh_TW]": "用來控制夜色功能的 Plasmoid",
        "EnabledByDefault": true,
        "Icon": "redshift-status-on",
        "Id": "org.kde.plasma.nightcolorcontrol",
        "License": "GPL-2.0+",
        "Name": "Night Color Control",
        "Name[ar]": "تحكم باللون الليلي",
        "Name[az]": "Gecə rənginin idarə edilməsi",
        "Name[bg]": "Контрол на Вечерни цветове",
        "Name[ca@valencia]": "Control del color de nit",
        "Name[ca]": "Control del color de nit",
        "Name[cs]": "Ovládání noční barvy",
        "Name[de]": "Nachtfarben-Steuerung",
        "Name[en_GB]": "Night Colour Control",
        "Name[es]": "Control del color nocturno",
        "Name[eu]": "Gaueko kolorearen agintea",
        "Name[fi]": "Yövärin hallinta",
        "Name[fr]": "Contrôle de la couleur de nuit",
        "Name[ia]": "Controlo de Color de Nocte",
        "Name[id]": "Kendali Warna Malam",
        "Name[it]": "Controllo del colore notturno",
        "Name[ja]": "Night Color コントロール",
        "Name[ka]": "ღამის ფერების კონტროლი",
        "Name[ko]": "야간 색상 제어",
        "Name[lt]": "Naktinės spalvos valdymas",
        "Name[nl]": "Besturing van nachtkleur",
        "Name[nn]": "Styring av kveldsfargar",
        "Name[pl]": "Przełącznik barw nocnych",
        "Name[pt]": "Controlo da Cor Nocturna",
        "Name[pt_BR]": "Controle da cor noturna",
        "Name[ro]": "Control culoare nocturnă",
        "Name[ru]": "Управление ночной цветовой схемой",
        "Name[sk]": "Ovládanie nočnej farby",
        "Name[sl]": "Upravljanje nočne barve",
        "Name[sv]": "Nattfärgkontroll",
        "Name[tr]": "Gece Rengi Denetimi",
        "Name[uk]": "Керування нічними кольорами",
        "Name[vi]": "Điều khiển \"Màu buổi tối\"",
        "Name[x-test]": "xxNight Color Controlxx",
        "Name[zh_CN]": "夜间颜色控制",
        "Name[zh_TW]": "夜色控制",
        "ServiceTypes": [
            "Plasma/Applet"
        ],
        "Version": "1.0",
        "Website": "https://kde.org/plasma-desktop"
    },
    "X-KDE-Keywords": "kwin,window,manager,night,colors,redshift,eyes,night mode,colour,dark mode,dark,dim,sleep,eye strain,red,shift,orange,yellow,warm,screen tint,temperature,blue,light",
    "X-Plasma-API": "declarativeappletscript",
    "X-Plasma-DBusActivationService": "org.kde.NightColor",
    "X-Plasma-MainScript": "ui/main.qml",
    "X-Plasma-NotificationArea": "true",
    "X-Plasma-NotificationAreaCategory": "SystemServices"
}
